0.000000,0.494328,-1.275143,-1.371546
9.941406,0.498190,-1.440022,-1.953180
19.890625,0.355103,-1.638944,-2.779054
29.839844,0.361670,-1.864341,-3.414131
39.789063,0.474848,-2.008689,-3.317311
49.738281,0.512450,-2.040758,-3.220285
59.687500,0.737996,-2.285064,-3.168842
69.636719,0.891873,-2.402205,-2.848770
79.585938,0.869051,-2.406622,-2.864834
89.535156,0.971084,-2.609037,-3.034157
99.480469,0.924685,-2.686870,-3.183952
109.429688,0.742965,-2.582801,-4.038011
119.378906,0.615159,-2.949680,-4.840322
129.300781,0.698141,-3.375266,-5.310694
139.250000,0.852490,-3.266586,-6.010116
149.195313,1.029067,-3.332549,-6.606233
159.144531,1.231244,-3.855202,-6.309457
169.093750,1.555716,-4.032601,-5.754420
179.042969,2.202571,-3.884385,-5.965791
188.992188,2.875492,-3.711515,-6.382979
198.941406,3.484048,-3.589782,-6.396896
208.890625,4.203626,-3.806666,-6.521508
218.839844,4.107666,-4.262208,-7.348539
228.789063,3.299121,-5.143612,-9.227713
238.734375,3.956634,-6.824653,-9.797853
248.683594,6.133046,-7.764940,-9.615707
258.632813,9.814146,-7.168208,-11.703055
268.582031,14.316871,-5.895968,-16.649986
278.531250,17.320061,-5.887286,-24.975321
288.480469,18.441008,-8.658218,-36.758827
298.429688,17.439451,-12.562304,-36.849243
308.378906,16.065617,-15.895821,-36.385277
318.328125,18.068073,-20.080885,-35.792866
328.277344,18.705574,-24.469757,-35.074142
338.222656,17.410126,-29.063944,-34.241180
348.171875,16.453358,-31.374483,-27.253223
358.089844,15.638264,-32.019516,-21.798065
368.039063,15.383291,-32.820351,-15.187143
377.984375,13.626059,-33.774315,-7.589810
387.933594,10.005470,-34.833076,1.616530
397.882813,6.869473,-35.917614,7.495029
407.832031,2.535428,-36.989906,12.499504
417.781250,-3.650625,-38.014778,28.764851
427.730469,-4.903152,-38.873455,46.407227
437.679688,-2.481056,-39.191498,49.789814
447.628906,-2.781069,-34.085609,49.862869
457.578125,-1.627414,-27.791483,49.863503
467.527344,3.858226,-19.154379,49.803177
477.472656,8.767755,-11.449018,49.703876
487.421875,10.141109,-7.063013,41.404430
497.371094,9.182581,-5.825928,34.835514
507.320313,7.144382,-5.840584,29.279099
517.269531,4.516949,-5.903479,23.437731
527.218750,2.197136,-5.942005,18.184896
537.167969,1.445779,-4.517080,13.411125
547.117188,2.680986,-1.898474,9.845754
557.066406,3.663799,0.067354,7.511885
566.984375,3.762616,1.026232,5.479021
576.933594,3.539854,1.289636,4.171742
586.882813,3.365897,1.246027,4.145844
596.832031,2.674803,1.108863,4.377168
606.777344,1.360512,0.743321,4.365583
616.726563,0.203976,0.446477,4.510164
626.675781,-0.708742,0.390047,4.277088
636.625000,-1.512393,0.225365,3.345523
646.574219,-2.005199,-0.009501,2.175552
656.519531,-2.273048,-0.035157,1.371538
666.468750,-2.217351,0.228938,0.786674
676.417969,-1.818099,0.612554,0.451749
686.367188,-1.119502,0.754848,0.696492
696.316406,-0.755352,0.781694,1.123982
706.261719,-0.669555,0.461479,0.914597
716.210938,-0.705518,0.087491,0.656700
726.160156,-0.584573,0.079713,0.554892
736.109375,-0.470116,0.136246,0.491315
746.058594,-0.371075,0.214196,0.322223
755.976563,-0.216296,0.252006,0.217318
765.925781,0.134391,0.446995,0.119417
775.875000,0.326973,0.597025,-0.274603
785.824219,0.259191,0.448278,-0.727584
795.773438,0.045387,0.167836,-1.062999
805.722656,-0.137839,-0.032289,-1.224224
815.671875,-0.228057,-0.100575,-0.937105
825.621094,-0.045456,-0.064304,-0.276315
835.570313,0.175815,0.085033,0.442701
845.515625,0.167204,0.226726,0.704310
855.464844,-0.035140,0.116013,0.339860
865.414063,-0.277105,-0.081661,0.004681
875.363281,-0.394799,-0.069822,0.281135
885.312500,-0.431994,-0.127766,0.630733
895.261719,-0.397283,-0.274072,0.845893
905.210938,-0.476066,-0.316321,0.951036
915.160156,-0.732262,-0.396220,0.762489
925.109375,-0.961494,-0.485757,0.256709
935.054688,-1.046855,-0.383827,-0.071784
944.972656,-0.929619,-0.223095,0.094032
954.921875,-0.681243,-0.229389,0.380887
964.871094,-0.433680,-0.187335,0.667389
974.820313,-0.209019,-0.120862,0.777246
984.765625,-0.120049,-0.104980,0.491022
994.714844,-0.267130,-0.118091,-0.222100
1004.664063,-0.250547,-0.069887,-0.641112
1014.613281,-0.134281,0.070342,-0.600493
1024.562500,0.230875,0.292947,-0.079600
1034.511719,0.567141,0.377123,0.795297
1044.460938,0.634197,0.313220,1.234454
1054.410156,0.521998,0.106541,1.344639
1064.359375,0.293542,-0.157483,1.331986
1074.304688,0.073125,-0.285921,1.148392
1084.253906,-0.025734,-0.221074,0.874632
1094.203125,0.048098,-0.014207,0.892504
1104.152344,0.254649,0.197619,1.227975
1114.074219,0.313401,0.208505,1.245769
1124.019531,0.180818,0.045466,0.867773
1133.968750,0.039053,-0.081887,0.175513
1143.917969,-0.045005,0.019797,-0.419740
1153.867188,-0.123183,0.126136,-0.614393
1163.816406,-0.169513,0.115103,-0.551821
1173.765625,-0.055152,0.179718,-0.146194
1183.714844,0.162476,0.156374,0.171660
1193.664063,0.303667,0.156416,0.188738
1203.613281,0.342355,0.104282,0.012156
1213.558594,0.267441,-0.014044,-0.385069
1223.507813,0.175495,-0.041097,-0.554476
1233.457031,0.223308,0.016887,-0.286637
1243.406250,0.352892,0.090173,0.038610
1253.355469,0.373485,0.194045,0.257707
1263.304688,0.372323,0.205713,0.252475
